\relax 
\citation{hypegear_2013}
\citation{vmsql_2021}
\citation{RamCloud}
\citation{dram_limit_2020}
\citation{pmaio_2022}
\citation{dcpmm_intro}
\citation{evaluation_of_dcpmm_2019}
\citation{idio_real_pm_2021}
\@writefile{toc}{\contentsline {section}{\numberline {I}Introduction}{1}{}\protected@file@percent }
\@writefile{lof}{\contentsline {figure}{\numberline {1}{\ignorespaces Overview of the Uniform Memory Access (UMA) and the the Non-Uniform Memory Access (NUMA).}}{1}{}\protected@file@percent }
\newlabel{fig:NUMA_and_UMA}{{1}{1}}
\citation{numa_intro}
\citation{Page migration}
\citation{autotiering_2021}
\citation{nimble_2019}
\citation{autotiering_2021}
\citation{Asymmetric load/store bandwidth of dcpmm}
\citation{MLC}
\newlabel{Asymmetric load/store bandwidth}{{I}{2}}
\@writefile{lot}{\contentsline {table}{\numberline {I}{\ignorespaces Asymmetric load/store bandwidth.}}{2}{}\protected@file@percent }
\citation{pm_like_dram}
\citation{arm}
\citation{amd}
\citation{ioat_2007}
\citation{hyplacer_2021}
\citation{memos_2019}
\citation{HeteroOS}
\citation{Thermostat}
\citation{autonuma_intel}
\@writefile{toc}{\contentsline {section}{\numberline {II}Background and Related Work}{3}{}\protected@file@percent }
\@writefile{toc}{\contentsline {subsection}{\numberline {\mbox  {II-A}}Performance Characteristics of the Hybrid Memory Architecture with NUMA}{3}{}\protected@file@percent }
\@writefile{lof}{\contentsline {figure}{\numberline {2}{\ignorespaces Performance characteristics of the hybrid memory system. L: Local, R: Remote, DR: DRAM, DC: DCPMM.}}{3}{}\protected@file@percent }
\newlabel{fig:diff-dram-and-dcpmm}{{2}{3}}
\@writefile{toc}{\contentsline {subsection}{\numberline {\mbox  {II-B}}DCPMM Mode Configuration}{3}{}\protected@file@percent }
\@writefile{toc}{\contentsline {subsection}{\numberline {\mbox  {II-C}}DMA Technology}{3}{}\protected@file@percent }
\@writefile{toc}{\contentsline {subsection}{\numberline {\mbox  {II-D}}Page Placement Mechanisms for the Hybrid Memory Architecture}{3}{}\protected@file@percent }
\citation{challenges of modern NUMA}
\citation{SRAM-Tags}
\@writefile{toc}{\contentsline {section}{\numberline {III}Design}{4}{}\protected@file@percent }
\@writefile{toc}{\contentsline {subsection}{\numberline {\mbox  {III-A}}Overview}{4}{}\protected@file@percent }
\@writefile{lof}{\contentsline {figure}{\numberline {3}{\ignorespaces Overview of PM-Migration. Applications can decide whether to entrust their pages to PM-Migration by binding or unbinding with the \textit  {Binding Module}.}}{4}{}\protected@file@percent }
\newlabel{fig:Overview of PM-Migration}{{3}{4}}
\@writefile{toc}{\contentsline {subsection}{\numberline {\mbox  {III-B}}Page Placement Strategy}{4}{}\protected@file@percent }
\@writefile{lof}{\contentsline {figure}{\numberline {4}{\ignorespaces Page allocation strategy of linux-default and PM-Migration.}}{4}{}\protected@file@percent }
\newlabel{fig:Page_Allocation_Strategy}{{4}{4}}
\citation{Randomized}
\citation{thread-and-mem}
\@writefile{lof}{\contentsline {figure}{\numberline {5}{\ignorespaces The workflow of the conventional page migration strategy.}}{5}{}\protected@file@percent }
\newlabel{fig:Default_Page_Migration_Strategy}{{5}{5}}
\@writefile{loa}{\contentsline {algorithm}{\numberline {1}{\ignorespaces Page Migration Strategy for PM-Migration.}}{5}{}\protected@file@percent }
\newlabel{alg:1}{{1}{5}}
\citation{Traffic management}
\@writefile{toc}{\contentsline {subsection}{\numberline {\mbox  {III-C}}Page Transmission Strategy}{6}{}\protected@file@percent }
\@writefile{loa}{\contentsline {algorithm}{\numberline {2}{\ignorespaces Transmission Handover Strategy for PM-Migration.}}{6}{}\protected@file@percent }
\newlabel{alg:2}{{2}{6}}
\@writefile{lof}{\contentsline {figure}{\numberline {6}{\ignorespaces transparent huge page mergeing queue (THP queue) of each memory node. The size of each page in the queue is 4KB.}}{7}{}\protected@file@percent }
\newlabel{fig:THP queue}{{6}{7}}
\@writefile{toc}{\contentsline {subsection}{\numberline {\mbox  {III-D}}Calculating the Hotness of a Page}{7}{}\protected@file@percent }
\@writefile{lof}{\contentsline {figure}{\numberline {7}{\ignorespaces Calculating the hotness of a page. Each access history of a page represented by two bits: a read bit and a write bit.}}{7}{}\protected@file@percent }
\newlabel{fig:Calculating-the-Page-Hotness}{{7}{7}}
\newlabel{eq:equation1}{{1}{7}}
\@writefile{toc}{\contentsline {section}{\numberline {IV}IMPLEMENTATION}{7}{}\protected@file@percent }
\@writefile{toc}{\contentsline {subsection}{\numberline {\mbox  {IV-A}}Page Allocation}{7}{}\protected@file@percent }
\newlabel{fig:code}{{\mbox  {IV-A}}{8}}
\@writefile{lof}{\contentsline {figure}{\numberline {8}{\ignorespaces The description of struct alloc\_context.}}{8}{}\protected@file@percent }
\@writefile{toc}{\contentsline {subsection}{\numberline {\mbox  {IV-B}}Page Migration}{8}{}\protected@file@percent }
\@writefile{toc}{\contentsline {subsection}{\numberline {\mbox  {IV-C}}Page Reclamation}{8}{}\protected@file@percent }
\@writefile{toc}{\contentsline {subsection}{\numberline {\mbox  {IV-D}}Transmission Handover}{9}{}\protected@file@percent }
\newlabel{fig:code2}{{\mbox  {IV-D}}{9}}
\@writefile{lof}{\contentsline {figure}{\numberline {9}{\ignorespaces The Workflow of DMA transmission.}}{9}{}\protected@file@percent }
\citation{npb}
\citation{stress-ng}
\newlabel{NPB workloads description}{{\mbox  {V-A}}{10}}
\@writefile{lot}{\contentsline {table}{\numberline {II}{\ignorespaces NPB workloads description.}}{10}{}\protected@file@percent }
\@writefile{toc}{\contentsline {section}{\numberline {V}Evaluation}{10}{}\protected@file@percent }
\@writefile{toc}{\contentsline {subsection}{\numberline {\mbox  {V-A}}Experimental Setup}{10}{}\protected@file@percent }
\@writefile{toc}{\contentsline {subsection}{\numberline {\mbox  {V-B}}Proportion of Write-intensive Pages in DRAM}{10}{}\protected@file@percent }
\@writefile{lof}{\contentsline {figure}{\numberline {10}{\ignorespaces Proportion of write-intensive pages in local DRAM memory nodes as time elapsing.}}{10}{}\protected@file@percent }
\newlabel{Write-Intensive-Page-Proportion}{{10}{10}}
\@writefile{toc}{\contentsline {subsection}{\numberline {\mbox  {V-C}}Throughput under CPU Contention-free and High CPU Contentions}{10}{}\protected@file@percent }
\@writefile{lof}{\contentsline {figure}{\numberline {11}{\ignorespaces Throughput speedup compared to Linux-default under the CPU contention-free environment.}}{10}{}\protected@file@percent }
\newlabel{cpu-contention-free-evaluation}{{11}{10}}
\@writefile{toc}{\contentsline {subsubsection}{\numberline {\mbox  {V-C}1}CPU contention-free environment}{10}{}\protected@file@percent }
\bibstyle{IEEEtran}
\bibcite{hypegear_2013}{1}
\bibcite{vmsql_2021}{2}
\bibcite{dram_limit_2020}{3}
\bibcite{pmaio_2022}{4}
\bibcite{dcpmm_intro}{5}
\@writefile{lof}{\contentsline {figure}{\numberline {12}{\ignorespaces Throughput speedup compared to Linux-default under the high CPU contention environment.}}{11}{}\protected@file@percent }
\newlabel{cpu-contention-evaluation}{{12}{11}}
\@writefile{toc}{\contentsline {subsubsection}{\numberline {\mbox  {V-C}2}High CPU contention environment}{11}{}\protected@file@percent }
\@writefile{lot}{\contentsline {table}{\numberline {III}{\ignorespaces The distribution of I/O operations across various sizes for multiple workloads. C: CPU, D: DMA}}{11}{}\protected@file@percent }
\@writefile{toc}{\contentsline {section}{\numberline {VI}Conclusion}{11}{}\protected@file@percent }
\@writefile{toc}{\contentsline {section}{References}{11}{}\protected@file@percent }
\bibcite{evaluation_of_dcpmm_2019}{6}
\bibcite{idio_real_pm_2021}{7}
\bibcite{numa_intro}{8}
\bibcite{thread-and-mem}{9}
\bibcite{MLC}{10}
\bibcite{Page migration}{11}
\bibcite{nimble_2019}{12}
\bibcite{autotiering_2021}{13}
\bibcite{Asymmetric load/store bandwidth of dcpmm}{14}
\bibcite{Randomized}{15}
\bibcite{AutoNUMA}{16}
\bibcite{ioat_2007}{17}
\bibcite{pm_like_dram}{18}
\bibcite{challenges of modern NUMA}{19}
\bibcite{amd}{20}
\bibcite{arm}{21}
\bibcite{memos_2019}{22}
\bibcite{autonuma_intel}{23}
\bibcite{hyplacer_2021}{24}
\bibcite{HeteroOS}{25}
\bibcite{Thermostat}{26}
\bibcite{ramci_2021}{27}
\bibcite{pm_like_normal_ram}{28}
\bibcite{RamCloud}{29}
\bibcite{npb}{30}
\bibcite{SRAM-Tags}{31}
\bibcite{stress-ng}{32}
\bibcite{Traffic management}{33}
\gdef \@abspage@last{12}
